simulation/qsim/LogicalStep_Lab4.msim.vcd
$comment
	File created using the following command:
		vcd file LogicalStep_Lab4.msim.vcd -direction
$end
$date
	Mon Jul 17 18:03:00 2023
$end
$version
	ModelSim Version 10.5b
$end
$timescale
	1ps
$end

$scope module logicalstep_lab4_top_vhd_vec_tst $end
$var wire 1 ! blink_signal $end
$var wire 1 " clkin_50 $end
$var wire 1 # EW_amber_show $end
$var wire 1 $ EW_green_show $end
$var wire 1 % EW_red_show $end
$var wire 1 & leds [7] $end
$var wire 1 ' leds [6] $end
$var wire 1 ( leds [5] $end
$var wire 1 ) leds [4] $end
$var wire 1 * leds [3] $end
$var wire 1 + leds [2] $end
$var wire 1 , leds [1] $end
$var wire 1 - leds [0] $end
$var wire 1 . NS_amber_show $end
$var wire 1 / NS_green_show $end
$var wire 1 0 NS_red_show $end
$var wire 1 1 pb_n [3] $end
$var wire 1 2 pb_n [2] $end
$var wire 1 3 pb_n [1] $end
$var wire 1 4 pb_n [0] $end
$var wire 1 5 rst_n $end
$var wire 1 6 seg7_char1 $end
$var wire 1 7 seg7_char2 $end
$var wire 1 8 seg7_data [6] $end
$var wire 1 9 seg7_data [5] $end
$var wire 1 : seg7_data [4] $end
$var wire 1 ; seg7_data [3] $end
$var wire 1 < seg7_data [2] $end
$var wire 1 = seg7_data [1] $end
$var wire 1 > seg7_data [0] $end
$var wire 1 ? sm_clk_en $end
$var wire 1 @ sw [7] $end
$var wire 1 A sw [6] $end
$var wire 1 B sw [5] $end
$var wire 1 C sw [4] $end
$var wire 1 D sw [3] $end
$var wire 1 E sw [2] $end
$var wire 1 F sw [1] $end
$var wire 1 G sw [0] $end

$scope module i1 $end
$var wire 1 H gnd $end
$var wire 1 I vcc $end
$var wire 1 J unknown $end
$var wire 1 K devoe $end
$var wire 1 L devclrn $end
$var wire 1 M devpor $end
$var wire 1 N ww_devoe $end
$var wire 1 O ww_devclrn $end
$var wire 1 P ww_devpor $end
$var wire 1 Q ww_clkin_50 $end
$var wire 1 R ww_rst_n $end
$var wire 1 S ww_pb_n [3] $end
$var wire 1 T ww_pb_n [2] $end
$var wire 1 U ww_pb_n [1] $end
$var wire 1 V ww_pb_n [0] $end
$var wire 1 W ww_sw [7] $end
$var wire 1 X ww_sw [6] $end
$var wire 1 Y ww_sw [5] $end
$var wire 1 Z ww_sw [4] $end
$var wire 1 [ ww_sw [3] $end
$var wire 1 \ ww_sw [2] $end
$var wire 1 ] ww_sw [1] $end
$var wire 1 ^ ww_sw [0] $end
$var wire 1 _ ww_leds [7] $end
$var wire 1 ` ww_leds [6] $end
$var wire 1 a ww_leds [5] $end
$var wire 1 b ww_leds [4] $end
$var wire 1 c ww_leds [3] $end
$var wire 1 d ww_leds [2] $end
$var wire 1 e ww_leds [1] $end
$var wire 1 f ww_leds [0] $end
$var wire 1 g ww_sm_clk_en $end
$var wire 1 h ww_blink_signal $end
$var wire 1 i ww_NS_red_show $end
$var wire 1 j ww_NS_amber_show $end
$var wire 1 k ww_NS_green_show $end
$var wire 1 l ww_EW_red_show $end
$var wire 1 m ww_EW_amber_show $end
$var wire 1 n ww_EW_green_show $end
$var wire 1 o ww_seg7_data [6] $end
$var wire 1 p ww_seg7_data [5] $end
$var wire 1 q ww_seg7_data [4] $end
$var wire 1 r ww_seg7_data [3] $end
$var wire 1 s ww_seg7_data [2] $end
$var wire 1 t ww_seg7_data [1] $end
$var wire 1 u ww_seg7_data [0] $end
$var wire 1 v ww_seg7_char1 $end
$var wire 1 w ww_seg7_char2 $end
$var wire 1 x \pb_n[2]~input_o\ $end
$var wire 1 y \sw[0]~input_o\ $end
$var wire 1 z \sw[1]~input_o\ $end
$var wire 1 { \sw[2]~input_o\ $end
$var wire 1 | \sw[3]~input_o\ $end
$var wire 1 } \sw[4]~input_o\ $end
$var wire 1 ~ \sw[5]~input_o\ $end
$var wire 1 !! \sw[6]~input_o\ $end
$var wire 1 "! \sw[7]~input_o\ $end
$var wire 1 #! \seg7_data[6]~output_o\ $end
$var wire 1 $! \leds[0]~output_o\ $end
$var wire 1 %! \leds[1]~output_o\ $end
$var wire 1 &! \leds[2]~output_o\ $end
$var wire 1 '! \leds[3]~output_o\ $end
$var wire 1 (! \leds[4]~output_o\ $end
$var wire 1 )! \leds[5]~output_o\ $end
$var wire 1 *! \leds[6]~output_o\ $end
$var wire 1 +! \leds[7]~output_o\ $end
$var wire 1 ,! \sm_clk_en~output_o\ $end
$var wire 1 -! \blink_signal~output_o\ $end
$var wire 1 .! \NS_red_show~output_o\ $end
$var wire 1 /! \NS_amber_show~output_o\ $end
$var wire 1 0! \NS_green_show~output_o\ $end
$var wire 1 1! \EW_red_show~output_o\ $end
$var wire 1 2! \EW_amber_show~output_o\ $end
$var wire 1 3! \EW_green_show~output_o\ $end
$var wire 1 4! \seg7_data[0]~output_o\ $end
$var wire 1 5! \seg7_data[1]~output_o\ $end
$var wire 1 6! \seg7_data[2]~output_o\ $end
$var wire 1 7! \seg7_data[3]~output_o\ $end
$var wire 1 8! \seg7_data[4]~output_o\ $end
$var wire 1 9! \seg7_data[5]~output_o\ $end
$var wire 1 :! \seg7_char1~output_o\ $end
$var wire 1 ;! \seg7_char2~output_o\ $end
$var wire 1 <! \clkin_50~input_o\ $end
$var wire 1 =! \pb_n[0]~input_o\ $end
$var wire 1 >! \INST3|pb_n_filtered[0]~1_combout\ $end
$var wire 1 ?! \rst_n~input_o\ $end
$var wire 1 @! \INST3|rst_n_filtered~0_combout\ $end
$var wire 1 A! \INST8|output~0_combout\ $end
$var wire 1 B! \INST8|sreg~q\ $end
$var wire 1 C! \pb_n[1]~input_o\ $end
$var wire 1 D! \INST3|pb_n_filtered[1]~2_combout\ $end
$var wire 1 E! \INST7|output~0_combout\ $end
$var wire 1 F! \INST7|sreg~q\ $end
$var wire 1 G! \INST2|clk_divider:counter[0]~1_combout\ $end
$var wire 1 H! \pb_n[3]~input_o\ $end
$var wire 1 I! \INST3|pb_n_filtered[3]~0_combout\ $end
$var wire 1 J! \INST2|clk_divider:counter[0]~q\ $end
$var wire 1 K! \INST2|clk_divider:counter[0]~2\ $end
$var wire 1 L! \INST2|clk_divider:counter[1]~1_combout\ $end
$var wire 1 M! \INST2|clk_divider:counter[1]~q\ $end
$var wire 1 N! \INST2|clk_divider:counter[1]~2\ $end
$var wire 1 O! \INST2|clk_divider:counter[2]~1_combout\ $end
$var wire 1 P! \INST2|clk_divider:counter[2]~q\ $end
$var wire 1 Q! \INST2|clk_divider:counter[2]~2\ $end
$var wire 1 R! \INST2|clk_divider:counter[3]~1_combout\ $end
$var wire 1 S! \INST2|clk_divider:counter[3]~q\ $end
$var wire 1 T! \INST2|clk_divider:counter[3]~2\ $end
$var wire 1 U! \INST2|clk_divider:counter[4]~1_combout\ $end
$var wire 1 V! \INST2|clk_divider:counter[4]~q\ $end
$var wire 1 W! \INST2|clk_reg_extend~0_combout\ $end
$var wire 1 X! \INST2|clk_reg_extend~1_combout\ $end
$var wire 1 Y! \INST2|sm_clken~combout\ $end
$var wire 1 Z! \INST9|current_state~52_combout\ $end
$var wire 1 [! \INST9|current_state.s15~q\ $end
$var wire 1 \! \INST9|current_state~47_combout\ $end
$var wire 1 ]! \INST9|current_state.s0~q\ $end
$var wire 1 ^! \INST9|current_state~49_combout\ $end
$var wire 1 _! \INST9|current_state~35_combout\ $end
$var wire 1 `! \INST9|current_state.s1~q\ $end
$var wire 1 a! \INST9|current_state~34_combout\ $end
$var wire 1 b! \INST9|current_state.s2~q\ $end
$var wire 1 c! \INST9|current_state~36_combout\ $end
$var wire 1 d! \INST9|current_state.s3~q\ $end
$var wire 1 e! \INST9|current_state~37_combout\ $end
$var wire 1 f! \INST9|current_state.s4~q\ $end
$var wire 1 g! \INST9|current_state~38_combout\ $end
$var wire 1 h! \INST9|current_state.s5~q\ $end
$var wire 1 i! \INST9|Selector2~2_combout\ $end
$var wire 1 j! \INST9|current_state~43_combout\ $end
$var wire 1 k! \INST9|current_state~44_combout\ $end
$var wire 1 l! \INST9|current_state.s6~q\ $end
$var wire 1 m! \INST9|current_state~51_combout\ $end
$var wire 1 n! \INST9|current_state.s7~q\ $end
$var wire 1 o! \INST9|current_state~48_combout\ $end
$var wire 1 p! \INST9|current_state.s8~q\ $end
$var wire 1 q! \INST9|current_state~50_combout\ $end
$var wire 1 r! \INST9|current_state.s9~q\ $end
$var wire 1 s! \INST9|current_state~39_combout\ $end
$var wire 1 t! \INST9|current_state.s10~q\ $end
$var wire 1 u! \INST9|current_state~40_combout\ $end
$var wire 1 v! \INST9|current_state.s11~q\ $end
$var wire 1 w! \INST9|current_state~41_combout\ $end
$var wire 1 x! \INST9|current_state.s12~q\ $end
$var wire 1 y! \INST9|current_state~42_combout\ $end
$var wire 1 z! \INST9|current_state.s13~q\ $end
$var wire 1 {! \INST9|WideOr7~0_combout\ $end
$var wire 1 |! \INST9|current_state~45_combout\ $end
$var wire 1 }! \INST9|current_state~46_combout\ $end
$var wire 1 ~! \INST9|current_state.s14~q\ $end
$var wire 1 !" \INST10|clk_proc:COUNT[0]~0_combout\ $end
$var wire 1 "" \INST10|clk_proc:COUNT[0]~q\ $end
$var wire 1 #" \INST10|clk_proc:COUNT[1]~1_combout\ $end
$var wire 1 $" \INST10|clk_proc:COUNT[1]~q\ $end
$var wire 1 %" \INST10|clk_proc:COUNT[1]~2\ $end
$var wire 1 &" \INST10|clk_proc:COUNT[2]~1_combout\ $end
$var wire 1 '" \INST10|clk_proc:COUNT[2]~q\ $end
$var wire 1 (" \INST10|clk_proc:COUNT[2]~2\ $end
$var wire 1 )" \INST10|clk_proc:COUNT[3]~1_combout\ $end
$var wire 1 *" \INST10|clk_proc:COUNT[3]~q\ $end
$var wire 1 +" \INST10|clk_proc:COUNT[3]~2\ $end
$var wire 1 ," \INST10|clk_proc:COUNT[4]~1_combout\ $end
$var wire 1 -" \INST10|clk_proc:COUNT[4]~q\ $end
$var wire 1 ." \INST10|clk_proc:COUNT[4]~2\ $end
$var wire 1 /" \INST10|clk_proc:COUNT[5]~1_combout\ $end
$var wire 1 0" \INST10|clk_proc:COUNT[5]~q\ $end
$var wire 1 1" \INST10|clk_proc:COUNT[5]~2\ $end
$var wire 1 2" \INST10|clk_proc:COUNT[6]~1_combout\ $end
$var wire 1 3" \INST10|clk_proc:COUNT[6]~q\ $end
$var wire 1 4" \INST10|clk_proc:COUNT[6]~2\ $end
$var wire 1 5" \INST10|clk_proc:COUNT[7]~1_combout\ $end
$var wire 1 6" \INST10|clk_proc:COUNT[7]~q\ $end
$var wire 1 7" \INST10|clk_proc:COUNT[7]~2\ $end
$var wire 1 8" \INST10|clk_proc:COUNT[8]~1_combout\ $end
$var wire 1 9" \INST10|clk_proc:COUNT[8]~q\ $end
$var wire 1 :" \INST10|clk_proc:COUNT[8]~2\ $end
$var wire 1 ;" \INST10|clk_proc:COUNT[9]~1_combout\ $end
$var wire 1 <" \INST10|clk_proc:COUNT[9]~q\ $end
$var wire 1 =" \INST10|clk_proc:COUNT[9]~2\ $end
$var wire 1 >" \INST10|clk_proc:COUNT[10]~1_combout\ $end
$var wire 1 ?" \INST10|clk_proc:COUNT[10]~q\ $end
$var wire 1 @" \INST9|WideOr2~1_combout\ $end
$var wire 1 A" \INST10|DOUT_TEMP[6]~0_combout\ $end
$var wire 1 B" \INST9|WideOr3~combout\ $end
$var wire 1 C" \INST9|WideOr6~0_combout\ $end
$var wire 1 D" \INST9|WideOr9~0_combout\ $end
$var wire 1 E" \INST9|WideOr8~0_combout\ $end
$var wire 1 F" \INST9|WideOr9~combout\ $end
$var wire 1 G" \INST9|WideOr8~1_combout\ $end
$var wire 1 H" \INST9|WideOr8~combout\ $end
$var wire 1 I" \INST9|WideOr2~0_combout\ $end
$var wire 1 J" \INST9|WideOr7~combout\ $end
$var wire 1 K" \INST9|WideOr2~combout\ $end
$var wire 1 L" \INST2|blink_sig~0_combout\ $end
$var wire 1 M" \INST2|blink_sig~q\ $end
$var wire 1 N" \INST9|Selector2~3_combout\ $end
$var wire 1 O" \INST9|ew_amber~combout\ $end
$var wire 1 P" \INST9|Selector3~2_combout\ $end
$var wire 1 Q" \INST10|DOUT[0]~0_combout\ $end
$var wire 1 R" \INST10|DOUT[3]~1_combout\ $end
$var wire 1 S" \INST6|sreg\ [1] $end
$var wire 1 T" \INST6|sreg\ [0] $end
$var wire 1 U" \INST4|sreg\ [1] $end
$var wire 1 V" \INST4|sreg\ [0] $end
$var wire 1 W" \INST5|sreg\ [1] $end
$var wire 1 X" \INST5|sreg\ [0] $end
$var wire 1 Y" \INST3|sreg0\ [3] $end
$var wire 1 Z" \INST3|sreg0\ [2] $end
$var wire 1 [" \INST3|sreg0\ [1] $end
$var wire 1 \" \INST3|sreg0\ [0] $end
$var wire 1 ]" \INST2|clk_reg_extend\ [1] $end
$var wire 1 ^" \INST2|clk_reg_extend\ [0] $end
$var wire 1 _" \INST3|sreg3\ [3] $end
$var wire 1 `" \INST3|sreg3\ [2] $end
$var wire 1 a" \INST3|sreg3\ [1] $end
$var wire 1 b" \INST3|sreg3\ [0] $end
$var wire 1 c" \INST3|sreg4\ [3] $end
$var wire 1 d" \INST3|sreg4\ [2] $end
$var wire 1 e" \INST3|sreg4\ [1] $end
$var wire 1 f" \INST3|sreg4\ [0] $end
$var wire 1 g" \INST3|sreg1\ [3] $end
$var wire 1 h" \INST3|sreg1\ [2] $end
$var wire 1 i" \INST3|sreg1\ [1] $end
$var wire 1 j" \INST3|sreg1\ [0] $end
$var wire 1 k" \INST9|ALT_INV_WideOr2~combout\ $end
$var wire 1 l" \INST9|ALT_INV_WideOr2~1_combout\ $end
$var wire 1 m" \INST9|ALT_INV_WideOr7~combout\ $end
$var wire 1 n" \INST9|ALT_INV_WideOr8~combout\ $end
$var wire 1 o" \INST9|ALT_INV_WideOr9~combout\ $end
$var wire 1 p" \INST10|ALT_INV_clk_proc:COUNT[10]~q\ $end
$upscope $end
$upscope $end
$enddefinitions $end
#0
$dumpvars
0!
0"
0#
0$
1%
0.
0/
00
05
16
07
0?
0H
1I
xJ
1K
1L
1M
1N
1O
1P
0Q
0R
0g
0h
0i
0j
0k
1l
0m
0n
1v
0w
1x
xy
xz
x{
x|
x}
x~
x!!
x"!
0#!
0$!
0%!
0&!
0'!
0(!
0)!
0*!
0+!
0,!
0-!
0.!
0/!
00!
11!
02!
03!
14!
05!
06!
07!
08!
09!
1:!
0;!
0<!
1=!
1>!
0?!
1@!
0A!
0B!
1C!
1D!
0E!
0F!
1G!
1H!
1I!
0J!
0K!
0L!
0M!
1N!
0O!
0P!
0Q!
0R!
0S!
1T!
0U!
0V!
0W!
0X!
0Y!
0Z!
0[!
0\!
0]!
1^!
0_!
0`!
0a!
0b!
0c!
0d!
0e!
0f!
0g!
0h!
0i!
0j!
0k!
0l!
0m!
0n!
0o!
0p!
0q!
0r!
0s!
0t!
0u!
0v!
0w!
0x!
0y!
0z!
1{!
0|!
0}!
0~!
1!"
0""
0#"
0$"
0%"
0&"
0'"
1("
0)"
0*"
0+"
0,"
0-"
1."
0/"
00"
01"
02"
03"
14"
05"
06"
07"
08"
09"
1:"
0;"
0<"
0="
0>"
0?"
1@"
0A"
0B"
0C"
0D"
0E"
1F"
0G"
1H"
0I"
1J"
1K"
0L"
0M"
0N"
0O"
0P"
1Q"
0R"
0k"
0l"
0m"
0n"
0o"
1p"
11
12
13
14
1S
1T
1U
1V
xW
xX
xY
xZ
x[
x\
x]
x^
0_
0`
0a
0b
0c
0d
0e
0f
0o
0p
0q
0r
0s
0t
1u
0S"
0T"
0U"
0V"
0W"
0X"
0Y"
0Z"
0["
0\"
0]"
0^"
0_"
0`"
0a"
0b"
0c"
0d"
0e"
0f"
0g"
0h"
0i"
0j"
0&
0'
0(
0)
0*
0+
0,
0-
08
09
0:
0;
0<
0=
1>
x@
xA
xB
xC
xD
xE
xF
xG
$end
#10000
1"
1Q
1<!
1\"
1V"
1X"
1j"
1T"
1b"
1""
0!"
1#"
#20000
0"
0Q
0<!
#30000
1"
1Q
1<!
1["
1U"
1W"
1i"
1S"
1a"
0""
1$"
1!"
0I!
1E!
0D!
1A!
0^!
1_!
0>!
#40000
0"
0Q
0<!
#50000
1"
1Q
1<!
1Z"
0V"
0X"
1h"
0T"
1`"
1J!
1""
0!"
0#"
1%"
0G!
1K!
1L!
1&"
#60000
0"
0Q
0<!
#70000
1"
1Q
1<!
1Y"
0U"
0W"
1g"
0S"
1_"
0J!
1M!
0""
0$"
1'"
0&"
0("
1!"
0%"
0L!
0N!
1G!
0K!
0E!
0A!
1^!
0_!
1L!
1N!
1O!
1&"
1("
1)"
0)"
0O!
#80000
0"
0Q
0<!
#90000
1"
1Q
1<!
1V"
1J!
1""
0!"
1#"
0G!
1K!
0L!
0N!
1O!
#100000
0"
0Q
0<!
#110000
1"
1Q
1<!
1U"
0J!
0M!
1P!
0""
1$"
1!"
0O!
1Q!
1L"
1L!
1N!
1G!
0K!
0^!
1_!
0L!
1O!
0Q!
1R!
0R!
#120000
0"
0Q
0<!
#130000
1"
1Q
1<!
0V"
1J!
1""
1M"
1-!
1N"
0!"
0#"
1%"
0G!
1K!
1h
10!
1L!
0&"
0("
1!
1k
1)"
1/
#140000
0"
0Q
0<!
#150000
1"
1Q
1<!
0U"
0J!
1M!
0""
0$"
0'"
1*"
0)"
1+"
1&"
1("
1!"
0%"
0L!
0N!
1G!
0K!
1^!
0_!
1L!
1N!
0O!
1Q!
0&"
1)"
0+"
1,"
0,"
1R!
1O!
0Q!
0R!
#160000
0"
0Q
0<!
#170000
1"
1Q
1<!
1V"
1J!
1""
0!"
1#"
0G!
1K!
0L!
0N!
0O!
1Q!
1R!
#180000
0"
0Q
0<!
#190000
1"
1Q
1<!
1U"
0J!
0M!
0P!
1S!
0""
1$"
1!"
0R!
0T!
1O!
0Q!
0L"
1L!
1N!
1G!
0K!
0^!
1_!
0L!
0O!
1R!
1T!
1U!
0U!
#200000
0"
0Q
0<!
#210000
1"
1Q
1<!
0V"
1J!
1""
0M"
0-!
0N"
0!"
0#"
1%"
0G!
1K!
0h
00!
1L!
1&"
0!
0k
0/
#220000
0"
0Q
0<!
#230000
1"
1Q
1<!
0U"
0J!
1M!
0""
0$"
1'"
0&"
0("
1!"
0%"
0L!
0N!
1G!
0K!
1^!
0_!
1L!
1N!
1O!
1&"
1("
0)"
1+"
1,"
1)"
0+"
0O!
0,"
#240000
0"
0Q
0<!
#250000
1"
1Q
1<!
1V"
1J!
1""
0!"
1#"
0G!
1K!
0L!
0N!
1O!
#260000
0"
0Q
0<!
#270000
1"
1Q
1<!
1U"
0J!
0M!
1P!
0""
1$"
1!"
0O!
1Q!
1L"
1L!
1N!
1G!
0K!
0^!
1_!
0L!
1O!
0Q!
0R!
0T!
1U!
1R!
1T!
0U!
#280000
0"
0Q
0<!
#290000
1"
1Q
1<!
0V"
1J!
1""
1M"
1-!
1N"
0!"
0#"
1%"
0G!
1K!
1h
10!
1L!
0&"
0("
1!
1k
0)"
1+"
1/
1,"
#300000
0"
0Q
0<!
#310000
1"
1Q
1<!
0U"
0J!
1M!
0""
0$"
0'"
0*"
1-"
0,"
0."
1)"
0+"
1&"
1("
1!"
0%"
0L!
0N!
1G!
0K!
1^!
0_!
1L!
1N!
0O!
1Q!
0&"
0)"
1,"
1."
1/"
0/"
0R!
0T!
1O!
0Q!
1R!
1T!
1U!
0U!
#320000
0"
15
0Q
1R
1?!
0<!
#330000
1"
1Q
1<!
1f"
1V"
1J!
1""
0!"
1#"
0G!
1K!
0L!
0N!
0O!
1Q!
0R!
0T!
1U!
#340000
0"
0Q
0<!
#350000
1"
1Q
1<!
1e"
1U"
0J!
0M!
0P!
0S!
1V!
0""
1$"
1!"
0U!
1W!
1R!
1T!
1O!
0Q!
0L"
1L!
1N!
1G!
0K!
0^!
1_!
0@!
0L!
0O!
0R!
1U!
#360000
0"
0Q
0<!
#370000
1"
1Q
1<!
1d"
0V"
1J!
1^"
1""
0M"
0-!
0N"
0!"
0#"
1%"
1X!
1Y!
0G!
1K!
0h
1,!
00!
1L!
1&"
0!
1g
0k
1?
0/
#380000
0"
0Q
0<!
#390000
1"
1Q
1<!
1c"
0U"
0J!
1M!
1]"
0""
0$"
1'"
0&"
0("
1!"
0%"
0Y!
0L!
0N!
1G!
0K!
1\!
1^!
0_!
0,!
1L!
1N!
1O!
0\!
1&"
1("
1)"
0g
0)"
0O!
0?
#400000
0"
0Q
0<!
#410000
1"
1Q
1<!
1J!
1""
0!"
1#"
0G!
1K!
0L!
0N!
1O!
#420000
0"
0Q
0<!
#430000
1"
1Q
1<!
0J!
0M!
1P!
0""
1$"
1!"
0O!
1Q!
1L"
1L!
1N!
1G!
0K!
0L!
1O!
0Q!
1R!
0R!
#440000
0"
0Q
0<!
#450000
1"
1Q
1<!
1J!
1""
1M"
1-!
1N"
0!"
0#"
1%"
0G!
1K!
1h
10!
1L!
0&"
0("
1!
1k
1)"
1/
#460000
0"
0Q
0<!
#470000
1"
1Q
1<!
0J!
1M!
0""
0$"
0'"
1*"
0)"
1+"
1&"
1("
1!"
0%"
0L!
0N!
1G!
0K!
1L!
1N!
0O!
1Q!
0&"
1)"
0+"
0,"
0."
1/"
1,"
1."
1R!
1O!
0Q!
0R!
0/"
#480000
0"
0Q
0<!
#490000
1"
1Q
1<!
1J!
1""
0!"
1#"
0G!
1K!
0L!
0N!
0O!
1Q!
1R!
#500000
0"
0Q
0<!
#510000
1"
1Q
1<!
0J!
0M!
0P!
1S!
0""
1$"
1!"
0R!
0T!
1O!
0Q!
0L"
1L!
1N!
1G!
0K!
0L!
0O!
1R!
1T!
0U!
1U!
#520000
0"
0Q
0<!
#530000
1"
1Q
1<!
1J!
1""
0M"
0-!
0N"
0!"
0#"
1%"
0G!
1K!
0h
00!
1L!
1&"
0!
0k
0/
#540000
0"
0Q
0<!
#550000
1"
1Q
1<!
0J!
1M!
0""
0$"
1'"
0&"
0("
1!"
0%"
0L!
0N!
1G!
0K!
1L!
1N!
1O!
1&"
1("
0)"
1+"
0,"
0."
1)"
0+"
0O!
1,"
1."
1/"
0/"
#560000
0"
0Q
0<!
#570000
1"
1Q
1<!
1J!
1""
0!"
1#"
0G!
1K!
0L!
0N!
1O!
#580000
0"
0Q
0<!
#590000
1"
1Q
1<!
0J!
0M!
1P!
0""
1$"
1!"
0O!
1Q!
1L"
1L!
1N!
1G!
0K!
0L!
1O!
0Q!
0R!
0T!
0U!
1R!
1T!
1U!
#600000
0"
0Q
0<!
#610000
1"
1Q
1<!
1J!
1""
1M"
1-!
1N"
0!"
0#"
1%"
0G!
1K!
1h
10!
1L!
0&"
0("
1!
1k
0)"
1+"
1/
0,"
0."
1/"
#620000
0"
0Q
0<!
#630000
1"
1Q
1<!
0J!
1M!
0""
0$"
0'"
0*"
0-"
10"
0/"
11"
1,"
1."
1)"
0+"
1&"
1("
1!"
0%"
0L!
0N!
1G!
0K!
1L!
1N!
0O!
1Q!
0&"
0)"
0,"
1/"
01"
12"
02"
0R!
0T!
1O!
0Q!
1R!
1T!
0U!
1U!
#640000
0"
0Q
0<!
#650000
1"
1Q
1<!
1J!
1""
0!"
1#"
0G!
1K!
0L!
0N!
0O!
1Q!
0R!
0T!
0U!
#660000
0"
0Q
0<!
#670000
1"
1Q
1<!
0J!
0M!
0P!
0S!
0V!
0""
1$"
1!"
1U!
0W!
1R!
1T!
1O!
0Q!
0L"
1L!
1N!
1G!
0K!
0L!
0O!
0R!
0U!
#680000
0"
0Q
0<!
#690000
1"
1Q
1<!
1J!
0^"
1""
0M"
0-!
0N"
0!"
0#"
1%"
0X!
0G!
1K!
0h
00!
1L!
1&"
0!
0k
0/
#700000
0"
0Q
0<!
#710000
1"
1Q
1<!
0J!
1M!
0]"
0""
0$"
1'"
0&"
0("
1!"
0%"
0L!
0N!
1G!
0K!
1L!
1N!
1O!
1&"
1("
1)"
0)"
0O!
#720000
0"
0Q
0<!
#730000
1"
1Q
1<!
1J!
1""
0!"
1#"
0G!
1K!
0L!
0N!
1O!
#740000
0"
0Q
0<!
#750000
1"
1Q
1<!
0J!
0M!
1P!
0""
1$"
1!"
0O!
1Q!
1L"
1L!
1N!
1G!
0K!
0L!
1O!
0Q!
1R!
0R!
#760000
0"
0Q
0<!
#770000
1"
1Q
1<!
1J!
1""
1M"
1-!
1N"
0!"
0#"
1%"
0G!
1K!
1h
10!
1L!
0&"
0("
1!
1k
1)"
1/
#780000
0"
0Q
0<!
#790000
1"
1Q
1<!
0J!
1M!
0""
0$"
0'"
1*"
0)"
1+"
1&"
1("
1!"
0%"
0L!
0N!
1G!
0K!
1L!
1N!
0O!
1Q!
0&"
1)"
0+"
1,"
0,"
1R!
1O!
0Q!
0R!
#800000
0"
0Q
0<!
#810000
1"
1Q
1<!
1J!
1""
0!"
1#"
0G!
1K!
0L!
0N!
0O!
1Q!
1R!
#820000
0"
0Q
0<!
#830000
1"
1Q
1<!
0J!
0M!
0P!
1S!
0""
1$"
1!"
0R!
0T!
1O!
0Q!
0L"
1L!
1N!
1G!
0K!
0L!
0O!
1R!
1T!
1U!
0U!
#840000
0"
0Q
0<!
#850000
1"
1Q
1<!
1J!
1""
0M"
0-!
0N"
0!"
0#"
1%"
0G!
1K!
0h
00!
1L!
1&"
0!
0k
0/
#860000
0"
0Q
0<!
#870000
1"
1Q
1<!
0J!
1M!
0""
0$"
1'"
0&"
0("
1!"
0%"
0L!
0N!
1G!
0K!
1L!
1N!
1O!
1&"
1("
0)"
1+"
1,"
1)"
0+"
0O!
0,"
#880000
0"
0Q
0<!
#890000
1"
1Q
1<!
1J!
1""
0!"
1#"
0G!
1K!
0L!
0N!
1O!
#900000
0"
0Q
0<!
#910000
1"
1Q
1<!
0J!
0M!
1P!
0""
1$"
1!"
0O!
1Q!
1L"
1L!
1N!
1G!
0K!
0L!
1O!
0Q!
0R!
0T!
1U!
1R!
1T!
0U!
#920000
0"
0Q
0<!
#930000
1"
1Q
1<!
1J!
1""
1M"
1-!
1N"
0!"
0#"
1%"
0G!
1K!
1h
10!
1L!
0&"
0("
1!
1k
0)"
1+"
1/
1,"
#940000
0"
0Q
0<!
#950000
1"
1Q
1<!
0J!
1M!
0""
0$"
0'"
0*"
1-"
0,"
0."
1)"
0+"
1&"
1("
1!"
0%"
0L!
0N!
1G!
0K!
1L!
1N!
0O!
1Q!
0&"
0)"
1,"
1."
0/"
11"
12"
1/"
01"
0R!
0T!
1O!
0Q!
1R!
1T!
1U!
02"
0U!
#960000
0"
0Q
0<!
#970000
1"
1Q
1<!
1J!
1""
0!"
1#"
0G!
1K!
0L!
0N!
0O!
1Q!
0R!
0T!
1U!
#980000
0"
0Q
0<!
#990000
1"
1Q
1<!
0J!
0M!
0P!
0S!
1V!
0""
1$"
1!"
0U!
1W!
1R!
1T!
1O!
0Q!
0L"
1L!
1N!
1G!
0K!
0L!
0O!
0R!
1U!
#1000000
0"
0Q
0<!
#1010000
1"
1Q
1<!
1J!
1^"
1""
0M"
0-!
0N"
0!"
0#"
1%"
1X!
1Y!
1_!
0G!
1K!
0h
1,!
00!
1L!
1\!
1&"
0!
1g
0k
1?
0/
#1020000
0"
0Q
0<!
#1030000
1"
1Q
1<!
0J!
1M!
1]"
1]!
1`!
0""
0$"
1'"
0&"
0("
1!"
0%"
1a!
1G"
0^!
1E"
0Y!
0_!
0L!
0N!
1G!
0K!
0,!
1L!
1N!
1O!
0F"
1&"
1("
1)"
1o"
0g
0)"
0O!
0?
1(!
1b
1)
#1040000
0"
0Q
0<!
#1050000
1"
1Q
1<!
1J!
1""
0!"
1#"
0G!
1K!
0L!
0N!
1O!
#1060000
0"
0Q
0<!
#1070000
1"
1Q
1<!
0J!
0M!
1P!
0""
1$"
1!"
0O!
1Q!
1L"
1L!
1N!
1G!
0K!
0L!
1O!
0Q!
1R!
0R!
#1080000
0"
0Q
0<!
#1090000
1"
1Q
1<!
1J!
1""
1M"
1-!
1N"
0!"
0#"
1%"
0G!
1K!
1h
10!
1L!
0&"
0("
1!
1k
1)"
1/
#1100000
0"
0Q
0<!
#1110000
1"
1Q
1<!
0J!
1M!
0""
0$"
0'"
1*"
0)"
1+"
1&"
1("
1!"
0%"
0L!
0N!
1G!
0K!
1L!
1N!
0O!
1Q!
0&"
1)"
0+"
0,"
0."
0/"
11"
1,"
1."
1R!
1O!
0Q!
0R!
1/"
01"
12"
02"
#1120000
0"
0Q
0<!
#1130000
1"
1Q
1<!
1J!
1""
0!"
1#"
0G!
1K!
0L!
0N!
0O!
1Q!
1R!
#1140000
0"
0Q
0<!
#1150000
1"
1Q
1<!
0J!
0M!
0P!
1S!
0""
1$"
1!"
0R!
0T!
1O!
0Q!
0L"
1L!
1N!
1G!
0K!
0L!
0O!
1R!
1T!
0U!
1U!
#1160000
0"
0Q
0<!
#1170000
1"
1Q
1<!
1J!
1""
0M"
0-!
0N"
0!"
0#"
1%"
0G!
1K!
0h
00!
1L!
1&"
0!
0k
0/
#1180000
0"
0Q
0<!
#1190000
1"
1Q
1<!
0J!
1M!
0""
0$"
1'"
0&"
0("
1!"
0%"
0L!
0N!
1G!
0K!
1L!
1N!
1O!
1&"
1("
0)"
1+"
0,"
0."
1)"
0+"
0O!
1,"
1."
0/"
11"
12"
1/"
01"
02"
#1200000
0"
0Q
0<!
#1210000
1"
1Q
1<!
1J!
1""
0!"
1#"
0G!
1K!
0L!
0N!
1O!
#1220000
0"
0Q
0<!
#1230000
1"
1Q
1<!
0J!
0M!
1P!
0""
1$"
1!"
0O!
1Q!
1L"
1L!
1N!
1G!
0K!
0L!
1O!
0Q!
0R!
0T!
0U!
1R!
1T!
1U!
#1240000
0"
0Q
0<!
